-7.750736334117709885e-04 1.374449182669104999e-02 -1.281718174171676480e-02 8.426731091956478695e-03 -8.578967543518990074e-03 -4.698869489006863047e-04 -5.349413676171513657e-03 -9.488420633357851422e-03 -8.706364761995311757e-03 -2.749197587133433984e-03 2.570460304129030225e-03 -3.917655776540379664e-03 -8.775680004820814867e-03 8.756117617223502236e-03 3.416406914521738156e-03 5.092636544225239738e-03 5.744896995483370419e-03 -3.256677167989571395e-03 2.161417187356541418e-03 4.366960777637209426e-03 9.847149900770043110e-03
-2.048075927293953324e-03 1.109473445522031129e-02 -2.115131487422264658e-02 3.630153744184597131e-02 -2.419688109554967576e-02 3.466859688826826394e-04 5.547027470410153920e-03 -1.254977958799655818e-02 -7.798584181403903082e-03 2.145771634679936174e-02 -7.176025846476622241e-03 2.354066064603629188e-02 2.601678685322154558e-02 3.217390148890952178e-03 2.062615195448762317e-02 3.299330292509444762e-02 3.124066582032378192e-02 3.396730479086953330e-02 3.459885188226451136e-02 8.340162917699603731e-03 2.304955533625666769e-02
5.052542140626337108e-03 -2.641910323200831467e-03 -8.978388738275706535e-03 4.174224447498684626e-03 2.393532473351521472e-03 1.961894104034491576e-03 -6.121837596414899871e-03 -1.172636142799787090e-03 -2.564777217641100310e-03 1.537489585493763411e-02 -1.226777580483982485e-02 -8.595591820525213395e-03 1.884583645471969715e-03 -3.741294113301017743e-02 3.029387861942144794e-02 -1.387008985541666739e-01 -3.291558669978458807e-02 -6.645657631071145988e-02 -6.290353134334897289e-02 -7.982730086298207850e-02 -4.013354075806800647e-02
-6.216834140435360812e-02 -3.168771254107813351e-02 -3.146397898784684954e-02 3.236509121915950166e-02 9.295494171411908257e-02 6.443300970923074300e-02 8.182393252975539433e-02 2.566110995438453807e-02 1.082652426078941216e-01 7.289018232629068672e-02 6.478672906291903233e-02 6.125712464355086845e-02 4.765777136694684946e-02 1.062254113217046686e-01 1.540434229455650006e-01 9.890498982728865296e-02 8.654688376739699818e-02 8.459680832211513568e-02 1.402724328938194098e-01 1.925490334104806855e-01 2.004058920995979154e-01
3.661893659472927054e-02 2.217478146942778588e-02 -1.623009437563587704e-03 -1.675242981884215998e-02 -4.041827880775135384e-02 -2.760234356187880531e-02 -1.651385204020781178e-03 -3.491712255102187579e-02 -3.239801938919410762e-02 -1.827032693691660326e-02 -2.498664430503580447e-02 -2.889498109800594725e-02 -3.257818933789266569e-02 -3.551538083166198845e-02 -2.771308777667426046e-02 -2.304904465552328960e-02 -4.547363614401405546e-02 -4.275641495351498178e-02 -5.104435320847763163e-02 -4.737142866584543449e-02 -3.365679927233326124e-02
5.350654621715288453e-03 1.803843219193779560e-02 -1.939082957251814232e-03 -3.020930423344541163e-02 8.759300377044147018e-03 -3.431449445555161126e-02 -1.779785966617293200e-02 -4.460718243691097484e-02 -1.129523178678286388e-02 -1.727827585571964017e-02 -6.488480294883160887e-03 -4.606013919856613570e-03 -1.634354007082682719e-02 1.540258234949812982e-02 2.547953021541142504e-03 2.770195537412800668e-02 2.571721292373056050e-02 3.177213993743394083e-02 3.285480697433387776e-02 3.860864004333063038e-02 3.421640184007549573e-02
3.778071154630271294e-03 -4.550594130966964523e-04 -8.189992864207755810e-03 3.961104470854709403e-03 9.058766518194802386e-04 2.792623565316058876e-03 6.033357066560916110e-03 -2.235555340420695286e-03 -1.827122063156674803e-03 -4.363866877668598487e-03 1.649446489081177192e-03 5.977115800536232648e-03 -1.380252597630493572e-02 -8.269615463523226004e-03 1.459569015078403600e-02 9.273982597806110229e-03 1.341694226646941365e-02 2.797621189944745138e-02 -5.201862831874161375e-03 2.905206550203317042e-02 -1.632588617315668816e-02
6.547704959373141370e-03 3.297234268135385005e-03 -2.351316361164212249e-02 -1.636794974363223534e-02 3.003617412776583839e-02 -3.010704142125028571e-02 -6.530631880452960822e-03 2.128056894559278434e-02 -6.288338926824431525e-03 -1.831286097373668528e-02 -4.252846558389554443e-03 -1.708716635274422357e-02 6.242781064689437165e-03 8.370459751539379573e-03 6.648609993071558782e-03 2.886244069694871017e-05 1.103954713074947400e-02 3.799210874650717218e-04 7.110016205264753364e-03 1.927022808506293969e-02 -5.182843683700553983e-03
-1.189117230126209923e-03 -1.304263468654586443e-03 3.347315646990696274e-04 -5.957097069307444072e-03 8.115746203389170160e-03 -1.104422661843923979e-02 -2.528907378062313777e-02 -1.831906082100508842e-02 -3.967337276488205194e-02 -3.885019471844287225e-02 -1.281011630622276298e-01 4.480549914955406915e-03 -1.048940902258738289e-01 -4.129314561158439756e-02 -1.144390504656251084e-01 -5.810553967349332827e-02 -6.000416018054413603e-02 -3.633884748269011755e-02 -7.870562735341796179e-02 -1.927557780563459930e-02 4.574176313618581735e-03
3.897252319994718578e-03 -5.245751842571526324e-03 -3.048880315373617145e-02 4.274086230268227260e-02 -1.090355962636930208e-02 4.223220006692868234e-03 2.154883432737579596e-02 5.773702125847941791e-03 2.291181272418355008e-02 9.865957917797610333e-02 3.266917563081208481e-02 3.092301692253102141e-02 4.307858784580347045e-02 6.262268818285392225e-02 7.858625372208594140e-02 1.498501234993676601e-01 3.908989526950287091e-02 4.466805782359520305e-02 -4.273726875016935906e-03 -2.159222585567720579e-02 -3.217825906956300192e-02
-2.863782535202884227e-04 2.342965910191510681e-02 -1.948832498435448465e-02 -7.627528925864302499e-03 3.972573061823965294e-03 5.196708023727357288e-03 -3.734483807423483355e-03 -1.177020619645732791e-02 -1.195192782362688999e-02 6.675802808848102857e-03 -2.301730962703722391e-03 -2.912280897736325286e-02 1.207621317768419952e-02 -1.061893947743401331e-02 -1.377171152719917392e-03 2.759963241151019986e-03 -1.501241717050456545e-02 1.525301775823590875e-02 3.707858365304963003e-03 -1.488327537290960213e-03 -1.107070097696812028e-02
-1.649952533378739455e-02 1.344415693662571673e-02 -3.466561233499469014e-02 1.760435445063322085e-02 2.011662628152314364e-02 -1.964195399341930187e-02 1.260120183474864458e-02 -3.298105851111284709e-03 3.840174963943900066e-02 1.239151641020841063e-02 3.881904315429572649e-02 2.660707284908403469e-02 5.560331647347441231e-02 3.471383921296233854e-02 2.995639812070446245e-02 5.108928404913826160e-02 4.106504638623501707e-02 4.147400803932708990e-02 3.754919105588769984e-02 4.010221955730655652e-02 4.613011564611566029e-02
-5.959039257632799819e-03 2.906768520146610357e-03 2.420345026377737629e-03 4.229967041087384638e-04 2.089290069996821431e-04 1.309020220898730880e-03 -6.450139322747062282e-03 -2.889898117307700132e-03 -3.807937993652851794e-03 3.121194332263474425e-03 -1.015214145318577010e-03 -7.752808592690011574e-03 -5.022805728580610751e-03 -2.390574022707370183e-02 -2.323566160241447714e-03 -2.527536863907500764e-02 -3.007511955559247219e-02 -2.601477751077091796e-02 -3.613495716675455688e-02 -5.179112802771387858e-02 -3.143829675683163655e-02
-6.618686126484689403e-03 -1.748619251115477585e-02 1.043250334622230352e-02 9.864733101403930920e-03 3.807642190013231683e-03 3.770879502316987902e-03 -1.943274404391541130e-02 3.064974549961022726e-02 1.729241938594242717e-02 2.349904832300422908e-02 9.531818687699996837e-03 2.440319975387299223e-02 1.343747453197390897e-02 1.134440958408876494e-02 2.030716017102760992e-02 1.268788085022360887e-02 5.274774741540067501e-03 1.815250637490449861e-02 1.048627042863028470e-02 1.461919325301834841e-02 7.896514039324790263e-03
2.294305754128953337e-02 1.551962892236051841e-02 1.439371583983300312e-02 -1.694919132990147653e-02 -3.590721097358156449e-02 -6.357805368189664574e-02 -8.657222580588978811e-03 -1.426434466629591946e-01 -4.148273375660582046e-02 -7.231211205795837205e-02 -1.073979831019285930e-02 -7.119193740277675320e-03 2.107284231887595477e-02 7.817736866385024963e-04 -2.294340206475141419e-03 4.819120431209077821e-02 1.853906895609023012e-02 2.294614264950090021e-02 -3.204138718860639889e-03 6.119571266904602624e-02 4.310104130649742432e-02
-3.058999965235374013e-02 -5.828542024312988179e-03 -1.552734697898524446e-02 -1.143906545365878241e-02 6.338495410931072049e-02 3.279318092963723341e-03 -4.122900688577138539e-04 1.495721900702243895e-02 3.834556319615373826e-02 1.476253344760335845e-02 5.323263150795131543e-02 -4.911183228634777298e-04 7.870763987659926131e-02 -2.462454719914512064e-02 -4.921867565409682871e-02 -4.594790058323076909e-02 -5.589088837262604775e-02 -2.803642089802440424e-02 -3.745142975739509245e-02 -5.968045946233766635e-02 -5.189531129793433645e-02
7.017647380837221255e-03 3.862205039126809930e-03 8.174905521031523153e-03 -2.296614700788309621e-02 3.911389066887538402e-03 -2.454318728861562549e-02 -1.056408275595672845e-02 -1.272017811119424691e-02 -1.326254098235406242e-02 -8.208763186829158912e-03 -4.365280559654096532e-03 -2.150659147901631818e-02 -1.057471744128905128e-03 8.060806570827448031e-03 -9.580175156393406707e-03 -1.051109421232026588e-02 -1.690798805452010597e-02 -7.827670699427960108e-03 -5.419362346086718102e-02 1.596127574191821136e-02 2.232822196892864791e-02
-2.929728699866047600e-02 -1.885174507497527213e-02 -1.178143151748612186e-02 4.035003705420779629e-02 1.958042653691406329e-02 -3.575037023541133979e-03 -1.498591235705573621e-03 1.335022812500958125e-02 -1.370247494691881514e-02 2.750062523331268244e-03 -1.073606005098350080e-03 -7.099619445442295618e-04 -8.329786354762877543e-03 -7.529254501742469602e-03 5.263997216761257675e-03 -1.526913909797691059e-02 -1.296951742549791106e-02 -4.212807760810174246e-03 -2.342422759598902435e-02 9.513126710034257305e-04 -1.051093497746073691e-02
1.362139355741930936e-02 -1.065452714157133496e-02 3.164007129494083789e-03 -3.116030686009411271e-03 -3.014842859332643454e-03 -1.859239857561453824e-02 -1.483882648403182791e-02 -1.543639514331935150e-02 -3.506912713483902044e-02 -1.375255262064527598e-02 -3.371510324633168049e-02 -4.248436269494628575e-02 -3.645128580070421120e-02 -3.643785661099647327e-02 -4.787084512558080485e-02 -4.873265046302201198e-02 -4.473197719058600447e-02 -5.483400175687876132e-02 -4.321203308024295503e-02 -2.838250881179220711e-02 -3.443920261985417008e-02
-1.895009117848294247e-02 -1.439474514018044757e-02 2.990545504233696819e-02 -1.065161846070816765e-02 1.409099973703459470e-02 -2.189736271746972433e-03 1.845608061598917257e-02 5.161610744188714628e-04 1.724714147592497360e-02 1.521559559637247760e-02 3.710121108409737689e-02 2.329569947335202555e-03 3.556144978652822641e-02 1.809723882685989466e-02 3.378291432785698878e-02 2.159596991271979516e-02 2.448872258580029812e-02 3.676250573071554451e-03 1.030890254695073990e-02 -4.526130167387885234e-02 -5.985108362571549268e-02
2.183299312281888893e-02 5.968994981191046850e-02 -6.869885204237892451e-02 -1.064720871422507320e-02 -2.176882178125325029e-03 5.240620154116629875e-02 6.985071469673975741e-02 1.033918253384390890e-01 9.484056035423008013e-02 1.141021620263984876e-01 1.265914094633882048e-01 9.816524054854516845e-02 8.421905876370132382e-02 3.851188988383912049e-02 6.227068692821787627e-02 9.884186933983592216e-02 9.978228659251318911e-02 1.382608803938175368e-01 1.347156756646153419e-01 1.462711578709529059e-01 1.397081642580807470e-01
-7.198990072721157818e-03 -2.740091232930765008e-03 8.160747890237435298e-03 4.459399644178053956e-03 -2.681066228763531734e-03 1.674783490856514290e-02 -3.381520733305286991e-02 6.993438211688350614e-02 -2.134814457134988352e-03 -7.357179349392098389e-02 -6.254672870686169006e-02 -7.128814291175281093e-02 -3.397622485406776027e-02 -5.360183691175137571e-02 -4.313872717515760541e-02 -3.124994521284102031e-02 -5.069631007474164480e-02 -2.271277835809058787e-02 -3.110117569140958757e-02 -3.750818191931025447e-02 -1.943409932947329222e-02
3.424227480828927195e-03 -3.869235336200631953e-03 1.886650574486898463e-02 7.398442505302107314e-03 -2.581994039479939412e-02 3.500892076356051930e-03 -3.404415948315206442e-02 -9.852794368659895802e-03 -4.865898015419029693e-02 -2.861184858242035028e-02 -6.748890383724118203e-02 -7.706978871866962399e-02 -7.140818883124039340e-02 -9.207358258510142668e-02 -5.629387172871010842e-02 -3.565175340083636540e-02 -7.907833272426495475e-02 -5.400070665496363442e-02 -6.179963844661266054e-02 1.115613934155363154e-02 -3.526753745526280820e-02
1.856800797306273204e-02 3.730250487343966456e-03 -2.712965174888169392e-03 -1.194759992084429116e-02 -7.637693364674237942e-03 -1.559599098472598012e-02 -8.477484150471120347e-03 -1.115800211585489359e-02 -1.229644698435772114e-02 -6.080551867277067882e-03 -2.832662549460797374e-02 -1.343989101789434294e-02 -2.543300067645130891e-04 -1.732949552935308252e-02 -9.648444443350943575e-03 -2.034108320364228645e-02 -1.158277894957823913e-02 -1.479949262857526045e-02 -8.257729470618714249e-03 -2.082331690943203112e-02 1.436113375292992662e-02
1.056297794912355696e-02 1.219291362968687176e-03 -2.548645897192537702e-03 -1.393061543051311857e-02 4.696992015613420807e-03 -1.321536904440402671e-03 -1.081592734882380613e-02 2.358623831500216567e-02 9.164108596002298532e-03 -3.630210023403381697e-03 5.712124648569833971e-03 -1.540896478865252939e-04 5.750628673687670570e-03 1.647971303392161205e-02 1.868833729990836481e-02 1.443445008812529497e-02 9.403120887559705474e-03 2.308697375631877866e-02 3.925083564033987615e-02 2.023575497930044445e-02 4.608219441451984894e-02
6.005454512284791324e-04 1.879606825598581499e-03 2.592767546861954320e-03 -3.000325744453927190e-04 -4.772887249243608354e-03 4.069437028571196158e-03 -1.227329664955953761e-02 -6.585779885491152563e-03 -1.667273446783050159e-02 -5.233860097513774734e-03 -2.146042624930283652e-02 -2.518453240735083615e-02 -3.572635172998250841e-02 -6.337608297464202012e-02 -1.127950114244645058e-01 -9.018239219162905995e-02 -9.460663013736267390e-02 -3.278819120359199174e-02 -1.383240448380636256e-01 -1.605852708596270384e-01 -1.041365939144926617e-01
-5.136671431917255726e-02 -1.264186468933124795e-03 5.502043724157713693e-03 1.414020766921496135e-03 4.571483629702647461e-02 1.615885994820783628e-02 1.395490522004853504e-02 6.195456180726474811e-03 -3.753249890505042791e-02 -3.756701206979455587e-02 6.059957657599397175e-03 2.284654123807135229e-02 3.318431191429554311e-02 6.021684440458192206e-02 5.729402290182048635e-02 2.791250556866882795e-02 7.256834237358628092e-02 6.773322018873578765e-02 6.330840691025943490e-02 7.417389062657309129e-02 6.232041906822558680e-02
4.070925477669212755e-03 -2.748429304238610149e-02 4.317185922672611698e-02 4.383553369244982956e-02 -6.359402535445904392e-02 -5.390487656903687058e-02 -6.531730960003354070e-02 -5.710344453604563469e-02 -6.047109806378370145e-02 -5.649323747764682657e-02 -5.170993166355852821e-02 -7.565585157601482924e-02 -3.342437566973960328e-02 -3.992805736766506103e-02 -9.049312682361433657e-02 -5.340211720203377754e-02 -5.210090279140104641e-02 -6.846385645667597830e-02 -6.185589176480320306e-02 -4.797896826916109303e-02 -8.566605555591857990e-02
2.380453991383315801e-02 -1.345829676813505710e-02 4.792776090771615378e-03 4.327758787434052117e-03 -1.946677802390377188e-02 -1.803552395399675087e-02 -2.217620928037583247e-02 -1.932855731408624281e-02 -2.486793091168371106e-02 -8.999212315524427255e-03 3.389762938724328462e-02 -2.597602267037901411e-02 -6.157727084316028110e-02 -4.047466345117713138e-02 3.996816436731663591e-02 9.361109449056607273e-03 -9.687839999167693200e-03 4.943484577319366517e-03 1.809128289866867613e-03 1.728060118425456954e-03 1.590910460790809222e-02
-3.411715309832641374e-03 -9.203038485850918715e-04 -8.759583800194981063e-04 1.147936832472499363e-03 4.060040705964728519e-03 -4.593684763017847478e-03 -2.472859043349612956e-03 -5.228635891066722718e-03 -9.272659467138698319e-03 -1.116633797780777239e-02 -1.953050424649955402e-02 -9.572178170829576810e-03 -2.329418234770560744e-02 -2.292383952563456506e-02 -2.169930846364425542e-02 -2.658170045493078032e-02 -2.193723895262565671e-02 -1.350401671157298172e-02 -2.578548004632875632e-02 -3.371699129168098663e-02 -2.612102580494590764e-02
-1.300309029713485678e-02 -9.273244600024922041e-03 1.196876925063617217e-02 1.070554207499236840e-02 -3.979764284687621785e-04 1.068626715564890105e-02 -6.786652018171808465e-03 7.096736472421370442e-03 -4.461130288308403843e-03 3.802258695969684427e-03 8.807407085271242927e-03 4.413562922224958072e-03 -1.315360865102708013e-03 2.273913479890712561e-02 5.278183733027337274e-03 -6.139649428850204108e-03 -1.573909835188528131e-02 3.368593898311057766e-02 -8.304893342641627568e-03 3.171063885583219177e-03 1.251756319115274012e-02
