1.229781808092698329e-03 1.479127020338512127e-03 1.850017075883935011e-03 4.203638023547646464e-03 5.136393929590908972e-03 5.607123331748537810e-03 6.378419449967741642e-03 6.151061354276639477e-03 6.378273923494293465e-03 6.236718089650180111e-03 6.480130955904661594e-03 7.267773142032652074e-03 7.915811143233324534e-03 7.596548150539705543e-03 7.349590633677328955e-03 7.565032064688744125e-03 5.435873688154829048e-03 4.648532663537897729e-03 3.705663617231121781e-03 2.424109725448834931e-03 2.009486000082595820e-03
6.021112188609839240e-04 5.172134569150244618e-04 1.011106033141715181e-03 2.677527539377200748e-03 4.411541541461541129e-03 5.559546437203657238e-03 6.420226028699052914e-03 5.942236487131557360e-03 5.431579728706747469e-03 5.626617467969401501e-03 5.695389102247948310e-03 6.341319125263511144e-03 6.310497840287136728e-03 5.515504710917397066e-03 6.177155926076267900e-03 3.371856091887527000e-03 2.211667925983764119e-03 1.680749640122504310e-03 7.696159981232927536e-04 -1.343825840643216485e-04 -2.157970483329401290e-04
-1.619131349233157800e-03 -2.993389537070629235e-03 -8.066355339583188488e-04 2.673108422092359757e-03 6.994265408960986981e-03 7.319435010312437540e-03 7.871786414112551949e-03 6.947173193343532220e-03 7.770371348792498231e-03 6.522242376815829551e-03 6.140888071450148478e-03 5.875935708926054678e-03 6.148527867394637005e-03 7.198302373478275389e-03 8.393282081600691655e-03 6.189274532448873004e-03 4.393889518050342856e-03 4.488239349925204902e-03 5.835948464700461795e-03 5.941024159223967822e-03 4.087563572530918295e-03
-2.157134491223735087e-03 -3.896041830882231768e-03 -2.567104368042133402e-03 1.581647894853295891e-03 3.771690137316857823e-03 4.814011731493888016e-03 4.927991344509019024e-03 2.590288097346634712e-03 1.811466991178248276e-03 1.802561041235874791e-03 1.238383794885635414e-03 1.763525798215366145e-03 9.173709368165080830e-04 1.382588679790762659e-03 1.310435628591267348e-03 3.162919401730584276e-03 2.365625170459952683e-03 1.863971436998181422e-03 2.066056753806811818e-03 3.112322612191897268e-03 1.664568202303844417e-03
-1.154114647892856690e-03 -2.136437406181321361e-03 -2.090591640349734326e-03 -7.015575588749370026e-04 7.428958096974435689e-04 3.150667058870701724e-04 4.938133422152043723e-04 1.106047640618740594e-04 -1.317668536352241187e-03 -1.848481683577740979e-03 -1.704271929927526951e-03 -2.079462529184654667e-03 -1.983264923541260168e-03 -2.726205824452368129e-03 -4.285108092951688159e-03 -3.524067148733886403e-03 -1.812462476311421222e-03 -3.123155705104288613e-03 -4.378674961232324574e-03 -5.053993820140090937e-03 -4.149513360719848595e-03
-1.940249880182861502e-03 -2.328843394365681316e-03 -1.480579912917542006e-03 1.058871135300211213e-03 3.249051898145882515e-03 3.757291921694430256e-03 2.796115900927569585e-03 3.054163175483960626e-03 1.777918347220235062e-03 7.203952687756612090e-04 3.966368852057159809e-04 -2.754487087371615384e-04 -9.725827601838840956e-04 -1.059706278228669807e-03 -7.311182862374211375e-04 -5.381563136554639356e-04 3.434017525633624446e-05 2.790931588242596988e-05 -7.425276496585040634e-04 6.691146002593304724e-04 -6.255527956701110190e-05
-2.259557901181099074e-03 -1.298612082174368642e-03 1.275116358373209113e-04 1.955207077686156592e-03 2.778491040221168096e-03 3.082041741081559174e-03 3.309216669909109763e-03 4.481014202376686767e-03 2.827980121914940720e-03 1.454989784784144636e-03 -1.348203696235684198e-04 -2.351638127221419676e-03 -1.466260838478214857e-03 -2.395920864976284342e-03 -2.351769953482351315e-03 -3.216058050657205365e-03 -3.651210148156118669e-03 -5.015049824325117436e-03 -6.144239335838275716e-03 -6.340862599209319377e-03 -5.101297338774522620e-03
-2.483401530970810820e-03 1.073817840009085804e-04 1.327568717029126502e-03 1.852939840518644981e-03 3.314627609430133206e-03 3.643436894090505522e-03 3.163540753418248638e-03 3.254010640195788631e-03 2.957051012744448329e-03 1.618151014298667032e-03 -2.378189057109602808e-03 -3.258853738721396043e-03 -4.105172651196235638e-03 -1.793892291871147099e-03 -3.317881056770355733e-03 -3.092671483024638478e-03 -3.534716391683695707e-03 -4.684421696653133863e-03 -6.452055851714874786e-03 -5.401465443205412734e-03 -3.010266462962062507e-03
-1.148082404025630799e-03 -2.275748110836881412e-04 1.640251634726136356e-03 3.066582620433706569e-03 2.823284574672085216e-03 3.745804712991464627e-03 4.080075954779904292e-03 3.380062523896587220e-03 4.764200374711070017e-03 5.082446170235450748e-03 2.125446458925307064e-03 -9.274364798028499187e-05 -2.400180337075501701e-04 2.892986601359523111e-03 2.011161457832912666e-03 2.134303183650349423e-03 3.395577049284288773e-04 -1.222693587902050566e-03 -6.581793157862488551e-03 -9.484139832256141545e-03 -6.165739668332733715e-03
-7.907539152253614768e-04 1.060125770578912397e-03 1.370733784689271524e-03 2.302135795693585965e-03 2.603805040273575976e-03 2.590913356956855811e-03 2.830244330099696264e-03 1.744485486249677938e-03 3.049976544182971937e-03 4.062633487993539197e-03 3.729318584125701497e-03 8.703327369972782297e-04 1.529333930360342059e-03 2.615383102853492420e-03 3.160445363455415078e-03 3.307743176778253202e-03 2.011411651567645599e-03 7.180433731448440399e-04 -1.329282468071852968e-03 -2.888825482176991723e-03 -2.951881433933778616e-03
-1.326419564890158644e-03 -7.616669461003317671e-05 1.183908891120584233e-03 2.259521527883547216e-03 3.056096030215813258e-03 1.369247153356270260e-03 3.520217838511395373e-04 6.770258694982138163e-04 1.202878650280713715e-03 4.689303493973878104e-04 -7.645948011050606027e-05 -3.656133283601950296e-04 -1.387000051860225961e-03 -2.967538109638187017e-03 -4.921805524499470348e-03 -4.628159341218041414e-03 -2.939934669748731251e-03 -2.916847356521896396e-03 -3.258939007936955106e-03 -3.336064958558795836e-03 -2.131908267427931429e-03
-1.559627254427864472e-03 -1.046650784024783778e-03 1.042755468624108296e-03 1.955115719290641697e-03 1.905705522242763300e-03 1.185459618471684492e-03 9.681509759184303565e-04 6.444916426831232654e-04 1.165105902231334829e-03 1.215955630980746719e-03 8.177262419562853673e-05 -6.105979941165251513e-04 -2.208752573406021040e-03 -3.368217793506147247e-03 -3.522683828997875098e-03 -3.659995290721338584e-03 -4.240616350662975223e-03 -3.959761624698163000e-03 -4.153049973747030728e-03 -3.423847622661257886e-03 -2.247831070576418455e-03
-2.864422110738635858e-03 -1.221820668026488274e-03 1.046777939033544536e-03 1.378152724365168001e-03 1.049881286637943103e-03 9.760698537070809210e-04 7.954571904245267980e-05 1.355296981230661585e-03 -5.345539515734744525e-06 -1.252243861765521408e-04 -1.634020837932576324e-03 -2.683887747277897799e-03 -4.474233320402554517e-03 -6.075566176564582525e-03 -7.290160451436050390e-03 -9.017789124261156933e-03 -8.628590027897297537e-03 -7.453310222534649879e-03 -6.777879267203302562e-03 -5.721959179481543763e-03 -4.718795944553402961e-03
-7.977941371888878799e-05 -1.389245603322463926e-03 -1.390962390910055772e-04 8.652746105030224540e-04 9.858665183316357066e-05 -5.118272011430963914e-04 -2.867673767234023112e-04 -2.115107742723658802e-03 -1.299346188308852775e-04 7.635540444762453063e-05 2.470731122170738469e-04 -4.654738686064270126e-04 -1.636200093842788339e-03 -3.878363327972920646e-03 -6.069840745821612760e-03 -6.890071111321807891e-03 -6.482077895220314696e-03 -5.841773035794217174e-03 -3.305774395084652532e-03 7.241455049045719683e-04 1.673785442471561026e-03
-1.721952550574001872e-03 -2.135283809720855009e-03 -2.916958839608133113e-04 1.240467990781788949e-03 2.031676038136922494e-03 1.552912937707299655e-03 1.073452752239869700e-03 7.507261188839733663e-04 2.867068658507306370e-03 1.512153898568855412e-03 1.537801986832531371e-03 6.840899022315288834e-04 -9.472600412252009947e-04 -6.777761944336571816e-03 -1.292030446651569811e-02 -1.613746060834073473e-02 -1.385835180306133584e-02 -1.187283424131032987e-02 -8.810130087822358111e-03 -6.067844335469490050e-03 -4.080087728112067637e-03
-2.538261416442384472e-03 -1.358587714889386263e-03 -8.387548843284800592e-04 1.178996384717519857e-03 2.994599609193243726e-03 3.613424759652444744e-03 3.656906933912963155e-03 5.093439713652009836e-03 4.495406473411817962e-03 3.866944819440113184e-03 2.270906202400175232e-03 6.800974100013091120e-04 -2.387025791141133158e-03 -5.145156074652993544e-03 -7.454894296280056148e-03 -1.025048650630564114e-02 -9.881749842708774725e-03 -7.594199303477401457e-03 -5.646791995495421303e-03 -3.802237529990847627e-03 -3.554041365648115923e-03
-2.326352826031247156e-03 -6.609538860324678123e-04 6.118813359007280140e-04 2.458162371520012084e-03 9.622862087945308410e-04 2.383965978581759505e-03 3.156057675515664546e-03 1.796972858210784318e-03 6.855304919139128738e-04 -5.302407176084062969e-05 -1.546508660660766152e-03 -3.386838949372962277e-03 -5.854360817566834838e-03 -5.485691029035275924e-03 -5.584197359683839949e-03 -7.455262933232659379e-03 -6.251244317512388328e-03 -6.332939741897474981e-03 -5.589394282509756173e-03 -3.632676104946019370e-03 -3.732210539644446878e-03
-2.434945130729283293e-03 -7.614003185027264390e-04 1.538505262166114354e-04 1.767472885903088918e-03 2.966432220954010913e-03 3.489996975604198540e-03 3.960519103425025507e-03 4.244289840651191067e-03 3.193440011066230044e-03 1.867017886455967553e-03 4.324459398095020822e-04 -1.627077812307198279e-03 -3.770931441805183085e-03 -4.805807217014124166e-03 -5.322024129959584612e-03 -4.573844157981746261e-03 -4.333782263372328719e-03 -3.388730430747938140e-03 -2.090557000685448492e-03 -1.643668768106992762e-03 -1.959646740021815745e-03
-4.628583835755510070e-04 -4.333862776510546684e-04 1.382130723889214491e-03 6.505927148610264610e-04 2.399601773516783949e-03 3.296797089220006131e-03 4.201634432615238869e-03 4.234555870386903266e-03 3.654065194890165815e-03 1.437348097366415462e-03 2.256008205535409622e-05 -2.317200778844515953e-03 -3.746648303994683585e-03 -4.738165695222795043e-03 -5.377011229099548477e-03 -4.450303379177686716e-03 -3.411672949111481824e-03 -3.337057268926148755e-03 -2.473640591813233008e-03 -2.813295489254669709e-03 -2.307397401475745537e-03
-3.155243758187336873e-04 2.314296220409435578e-04 -3.295355467130618612e-04 1.837466521980460213e-03 4.404045757293616366e-03 6.356481214249551891e-03 8.160428386813472698e-03 9.628677462191500766e-03 8.494698958291959853e-03 5.971564557176144150e-03 3.538858017431974028e-03 1.265659433110362224e-04 -3.272652822751402190e-03 -4.734562183824296382e-03 -3.039602012238337269e-03 -5.642372933359242207e-04 7.854562174981366031e-04 1.661994305431386751e-03 3.392634654863189558e-03 4.555549244134327221e-03 3.035725109838481161e-03
-1.252521196188461456e-03 1.336181120421844296e-04 8.207855484198526988e-04 1.264670554798707266e-03 2.146615042299796199e-03 3.337094420162447454e-03 5.078482676437375345e-03 5.596505413958541807e-03 2.588025294158040682e-03 -4.099504821616424544e-03 -7.876230417707014500e-03 -1.095720705090311858e-02 -1.414930339879132311e-02 -1.450418216352056429e-02 -1.387730299315723982e-02 -9.446564341993184816e-03 -8.933330784398755761e-03 -8.445535645732353547e-03 -7.033146029748657199e-03 -4.055778997704290179e-03 -2.550074730134911129e-03
-2.678918271275732964e-03 -1.216887830244555227e-03 2.184359925445427623e-03 1.253426151477696898e-03 6.809749040561090434e-04 1.970592115370575629e-04 7.324446214717898924e-04 1.523478964059156926e-04 -3.568614657073768126e-03 -7.691702754217912864e-03 -1.070258044075254530e-02 -1.401018589053047193e-02 -1.481235559899491544e-02 -1.395989379479075677e-02 -1.260267383959123681e-02 -1.188317944705223790e-02 -1.180256966251072223e-02 -1.181546856125678842e-02 -1.047687571236287710e-02 -7.795604193161589403e-03 -5.410781949741768661e-03
1.483751817151854379e-03 1.237974362893277253e-03 1.133857254329475933e-03 3.448492522067891762e-05 3.028739182924683774e-04 1.761880601296575747e-04 7.242510348143421390e-04 -1.789808643217160678e-03 -2.978875420105465358e-03 -3.471237126471561803e-03 -5.436462503166908725e-03 -7.498633141864587126e-03 -8.412649394949862219e-03 -8.500415471436550269e-03 -9.088236237542674303e-03 -8.368293953404125352e-03 -7.126604480685489601e-03 -6.767243778764070634e-03 -6.276536971133726481e-03 -5.109715712357695318e-03 -1.046826444730687439e-03
-2.717855225456895264e-04 7.707748683998900865e-04 1.434272662134608751e-03 1.664633660145993206e-03 3.197830824144886914e-03 2.218171109694792430e-03 2.033612429609804075e-03 1.430527543144332475e-03 -4.946445225965262470e-06 -2.341973591500885830e-03 -2.308507255079438915e-03 -3.355249033459558293e-03 -3.277390073242810939e-03 -2.313539214719762677e-03 -2.840516196070632781e-03 -2.512142435189492710e-03 -1.946591807794329377e-03 -1.264308518361010377e-03 -7.634121616004064387e-04 -1.513829489999571907e-03 -2.295108943531757087e-04
-3.130241992790587665e-04 2.261193394393111369e-03 2.658825058057701952e-03 3.771709917335540688e-03 3.010138387014917819e-03 2.819941843772575535e-03 1.661661430474500704e-03 -1.350323926143079715e-04 -1.691932246861050856e-03 -2.929764280497410087e-03 -4.629082092157376857e-03 -4.812741148154661003e-03 -5.702153752827334061e-03 -6.067214885004449526e-03 -6.626469618333877439e-03 -5.984053433640710608e-03 -5.860841677457889580e-03 -4.547505182001677047e-03 -7.079580343801985393e-03 -6.915925355740408335e-03 -4.707107243894459621e-03
1.110815347395818732e-03 2.908780147390978895e-03 4.272506767791857570e-03 6.363352391405042129e-03 6.205560376675055452e-03 4.649663505184506267e-03 2.881461729654660568e-03 4.888695265955524940e-04 -1.909179549951275923e-03 -4.504170189936320193e-03 -4.404401416484748227e-03 -3.997758841098999170e-03 -1.838744688099049540e-03 7.712159505440684050e-05 1.229382017041247917e-04 6.596396815334787996e-04 1.757686483202937193e-04 7.897245328922980272e-05 -2.635684225879149269e-03 -2.885853759911858555e-03 1.678360997991518687e-03
2.367761254480925392e-03 4.817060971994000657e-03 6.877989884272950154e-03 7.470939245164461007e-03 4.307909190213994252e-03 2.549154577898190763e-03 1.334740456617000779e-03 -3.759273240924239395e-05 -2.324203359603483655e-03 -6.024935319953434766e-03 -6.957584495959514073e-03 -5.859662482086755789e-03 -2.968504015432644593e-03 4.388421299130970416e-04 1.114888728562344429e-03 1.909586341385522724e-03 1.914084004953470447e-04 -2.028491162260843104e-03 -1.303657641300129703e-03 2.194884570247464077e-03 1.836548452020403659e-03
3.541485929713874062e-03 3.383308920957269015e-03 5.283907402972509541e-03 6.327434769664920175e-03 4.308116127827782069e-03 3.805116725895138583e-03 2.771320448039560607e-03 2.881557208050297345e-03 1.268992848534560795e-03 3.161901019873926454e-04 -3.401822872088394105e-04 -2.416017865374244823e-03 -2.398915166936071899e-03 -7.122789956982584353e-04 1.706105757493624978e-03 1.605833509597483005e-03 -4.566696901333054713e-04 -1.407911475025966667e-03 -1.360185440824033826e-03 1.331381060008805025e-04 1.616890062570674070e-03
3.409282630025993639e-03 3.608305175035272754e-03 3.334806853324080722e-03 4.246740692815356016e-03 6.722270363154815923e-03 6.415542480067521099e-03 6.353801906852940030e-03 6.339294767586132334e-03 4.823023117571620909e-03 3.495728097345128949e-03 3.142698228470338761e-03 3.629446632988299944e-03 3.207628887633580048e-03 3.673118273349298881e-03 5.501496166740630668e-03 3.847770212429111551e-03 3.466582014386037237e-03 3.249842810634568334e-03 2.773169974472855081e-03 3.777258913249584380e-03 4.433122630815423612e-03
1.598744699558707436e-03 2.401233662934312927e-03 3.774682017995568267e-03 5.209662834202142580e-03 6.211497927730824306e-03 6.866660443057397319e-03 6.479643340409006746e-03 6.811130251911412178e-03 6.156101104461104458e-03 5.358332055058023617e-03 4.696311813210623728e-03 6.152728677640609961e-03 7.160537878615344347e-03 7.025609215748240821e-03 5.208812475007154434e-03 4.774491900933435125e-03 4.553025542664863173e-03 3.778492032644142646e-03 2.274161428411818411e-03 2.596789547523577647e-03 1.997949405795074792e-03
2.915268315302387437e-03 2.217379671249726601e-03 2.984115523303092123e-03 3.752480577868025444e-03 4.645207189683717673e-03 6.155337381643744693e-03 6.112223700162078451e-03 6.399238277936702968e-03 5.644767787996682849e-03 5.115532840569291147e-03 6.163749313918467226e-03 6.767633934418348582e-03 7.110247962750437627e-03 7.331898688861289946e-03 7.165413865079042939e-03 6.388580877576799898e-03 5.229213863142441118e-03 4.385644300534562688e-03 3.598936314298502217e-03 3.734870593495657511e-03 3.259809890986523507e-03
